…
A dataset with 197 rows and 130 variables can then be generated using
this function as follows:

``` r
variables <- generate_uncor_variables(ncols = 130, nrows = 197)
```

This results in the following dataset being generated:

``` r
variables %>%
  as_tibble()
```

    ## # A tibble: 197 x 130
    ##         X1     X2     X3      X4     X5      X6      X7     X8     X9    X10
    ##      <dbl>  <dbl>  <dbl>   <dbl>  <dbl>   <dbl>   <dbl>  <dbl>  <dbl>  <dbl>
    ##  1  1.26    0.727  0.416  1.34   -0.297  0.221  -0.793   0.717 -0.515  0.221
    ##  2  0.696  -1.49  -0.229  1.19    1.94   0.677  -0.0438 -1.44   1.82   0.552
    ##  3  0.500   1.01   1.26  -0.374  -0.196 -0.122  -0.434   0.259 -0.340 -1.34 
    ##  4 -0.241   0.569 -2.24   0.860   1.19   0.642   1.04    0.735  0.735 -0.404
    ##  5 -1.16   -0.491 -1.35   2.56   -1.81   0.197   0.0831  2.22  -0.522  1.97 
    ##  6  0.0291  2.02  -0.898  1.30    1.16  -0.0930 -0.467  -1.62  -0.302  0.336
    ##  7  0.268  -0.447  0.657 -0.0136  0.440  0.192   0.0668  0.428  2.09  -0.761
    ##  8  1.55   -2.16  -0.485 -0.726   0.310  0.471   1.87   -0.455  0.550 -2.70 
    ##  9 -0.837  -1.32   0.303 -0.717   1.02  -0.720  -0.650  -1.19  -0.364  1.52 
    ## 10  1.82    0.748  0.125 -2.42    0.360 -1.01   -1.22   -0.326  0.350  0.200
    ## # ... with 187 more rows, and 120 more variables: X11 <dbl>, X12 <dbl>,
    ## #   X13 <dbl>, X14 <dbl>, X15 <dbl>, X16 <dbl>, X17 <dbl>, X18 <dbl>,
    ## #   X19 <dbl>, X20 <dbl>, X21 <dbl>, X22 <dbl>, X23 <dbl>, X24 <dbl>,
    ## #   X25 <dbl>, X26 <dbl>, X27 <dbl>, X28 <dbl>, X29 <dbl>, X30 <dbl>,
    ## #   X31 <dbl>, X32 <dbl>, X33 <dbl>, X34 <dbl>, X35 <dbl>, X36 <dbl>,
    ## #   X37 <dbl>, X38 <dbl>, X39 <dbl>, X40 <dbl>, X41 <dbl>, X42 <dbl>,
    ## #   X43 <dbl>, X44 <dbl>, X45 <dbl>, X46 <dbl>, X47 <dbl>, X48 <dbl>, ...
…
``` r
generate_uncor_outcome <- function(nrows) {
  data.frame(replicate(1, rnorm(nrows, 0, 1))) %>%
    rename("outcome" = 1)
}

outcome <- generate_uncor_outcome(nrows = 197)

outcome %>%
  as_tibble()
```

    ## # A tibble: 197 x 1
    ##    outcome
    ##      <dbl>
    ##  1   0.735
    ##  2   0.219
    ##  3  -0.712
    ##  4   0.145
    ##  5   1.48 
    ##  6   0.541
    ##  7   0.572
    ##  8  -0.656
    ##  9  -0.956
    ## 10  -1.24 
    ## # ... with 187 more rows
…
``` r
df_no_signal <- outcome %>%
  bind_cols(variables)
```

This results in a dataset of 197 rows, with a single outcome variable,
which has no relationship to the 130 columns as shown below.

``` r
df_no_signal %>%
  as_tibble()
```

    ## # A tibble: 197 x 131
    ##    outcome      X1     X2     X3      X4     X5      X6      X7     X8     X9
    ##      <dbl>   <dbl>  <dbl>  <dbl>   <dbl>  <dbl>   <dbl>   <dbl>  <dbl>  <dbl>
    ##  1   0.735  1.26    0.727  0.416  1.34   -0.297  0.221  -0.793   0.717 -0.515
    ##  2   0.219  0.696  -1.49  -0.229  1.19    1.94   0.677  -0.0438 -1.44   1.82 
    ##  3  -0.712  0.500   1.01   1.26  -0.374  -0.196 -0.122  -0.434   0.259 -0.340
    ##  4   0.145 -0.241   0.569 -2.24   0.860   1.19   0.642   1.04    0.735  0.735
    ##  5   1.48  -1.16   -0.491 -1.35   2.56   -1.81   0.197   0.0831  2.22  -0.522
    ##  6   0.541  0.0291  2.02  -0.898  1.30    1.16  -0.0930 -0.467  -1.62  -0.302
    ##  7   0.572  0.268  -0.447  0.657 -0.0136  0.440  0.192   0.0668  0.428  2.09 
    ##  8  -0.656  1.55   -2.16  -0.485 -0.726   0.310  0.471   1.87   -0.455  0.550
    ##  9  -0.956 -0.837  -1.32   0.303 -0.717   1.02  -0.720  -0.650  -1.19  -0.364
    ## 10  -1.24   1.82    0.748  0.125 -2.42    0.360 -1.01   -1.22   -0.326  0.350
    ## # ... with 187 more rows, and 121 more variables: X10 <dbl>, X11 <dbl>,
    ## #   X12 <dbl>, X13 <dbl>, X14 <dbl>, X15 <dbl>, X16 <dbl>, X17 <dbl>,
    ## #   X18 <dbl>, X19 <dbl>, X20 <dbl>, X21 <dbl>, X22 <dbl>, X23 <dbl>,
    ## #   X24 <dbl>, X25 <dbl>, X26 <dbl>, X27 <dbl>, X28 <dbl>, X29 <dbl>,
    ## #   X30 <dbl>, X31 <dbl>, X32 <dbl>, X33 <dbl>, X34 <dbl>, X35 <dbl>,
    ## #   X36 <dbl>, X37 <dbl>, X38 <dbl>, X39 <dbl>, X40 <dbl>, X41 <dbl>,
    ## #   X42 <dbl>, X43 <dbl>, X44 <dbl>, X45 <dbl>, X46 <dbl>, X47 <dbl>, ...
…
### Stepwise regression

This results in a table below of all of the variables that have a
p-value of \<0.2 to be carried forward into a multivariable model.

``` r
univariable_outcomes_filtered %>%
  as_tibble()
```

    ## # A tibble: 26 x 6
    ##    variable term     estimate std.error statistic p.value
    ##    <chr>    <chr>       <dbl>     <dbl>     <dbl>   <dbl>
    ##  1 outcome  variable   1       2.65e-17   3.77e16 0      
    ##  2 X4       variable   0.150   6.70e- 2   2.24e 0 0.0259 
    ##  3 X6       variable   0.159   7.95e- 2   1.99e 0 0.0475 
    ##  4 X7       variable  -0.115   7.32e- 2  -1.57e 0 0.117  
    ##  5 X12      variable   0.0916  7.02e- 2   1.31e 0 0.193  
    ##  6 X15      variable  -0.103   7.11e- 2  -1.45e 0 0.149  
    ##  7 X25      variable  -0.198   6.90e- 2  -2.87e 0 0.00459
    ##  8 X27      variable   0.116   7.00e- 2   1.65e 0 0.0998 
    ##  9 X28      variable  -0.138   7.46e- 2  -1.85e 0 0.0652 
    ## 10 X34      variable   0.113   6.89e- 2   1.64e 0 0.102  
    ## # ... with 16 more rows
…
If we extract a single bootstrapped dataset and sort by the outcome, we
can see that several rows have been resampled. Consequently as the
dataset length is the same as the original, several rows will be omitted
completely.

``` r
bootstrapped_datasets$splits[[1]] %>%
  as_tibble() %>%
  arrange(outcome)
```

    ## # A tibble: 300 x 301
    ##    outcome      V1     V2      V3      V4      V5      V6       V7      V8
    ##      <dbl>   <dbl>  <dbl>   <dbl>   <dbl>   <dbl>   <dbl>    <dbl>   <dbl>
    ##  1   -5.59 -0.0449 -0.430 -1.03   -0.234   0.537   0.0803 -0.162    0.121 
    ##  2   -5.30  1.81    1.02  -0.933   1.79    0.815  -1.50   -0.0758  -0.0575
    ##  3   -4.84  1.52    0.983  0.0247  0.928   1.97    0.135   1.50     1.63  
    ##  4   -3.68  0.213   0.337 -0.892   0.0355  0.272  -1.56    0.0991   0.722 
    ##  5   -3.49 -0.0162 -0.529 -0.274   0.287   1.19   -0.559  -0.823   -1.26  
    ##  6   -3.43 -1.58   -1.79   0.525  -0.163  -0.0325  0.392   0.219   -0.371 
    ##  7   -2.91 -0.145   1.44  -1.21    0.823  -0.431  -0.309  -0.00417 -0.393 
    ##  8   -2.91 -0.145   1.44  -1.21    0.823  -0.431  -0.309  -0.00417 -0.393 
    ##  9   -2.82 -1.77   -0.885  1.37   -0.651   0.686  -0.673  -0.717    0.0153
    ## 10   -2.82 -1.77   -0.885  1.37   -0.651   0.686  -0.673  -0.717    0.0153
    ## # ... with 290 more rows, and 292 more variables: causal_9 <dbl>, V10 <dbl>,
    ## #   V11 <dbl>, V12 <dbl>, V13 <dbl>, V14 <dbl>, V15 <dbl>, V16 <dbl>,
    ## #   V17 <dbl>, causal_18 <dbl>, V19 <dbl>, V20 <dbl>, V21 <dbl>, V22 <dbl>,
    ## #   V23 <dbl>, V24 <dbl>, V25 <dbl>, V26 <dbl>, V27 <dbl>, V28 <dbl>,
    ## #   V29 <dbl>, V30 <dbl>, V31 <dbl>, V32 <dbl>, V33 <dbl>, V34 <dbl>,
    ## #   V35 <dbl>, V36 <dbl>, V37 <dbl>, V38 <dbl>, V39 <dbl>, V40 <dbl>,
    ## #   V41 <dbl>, V42 <dbl>, V43 <dbl>, V44 <dbl>, causal_45 <dbl>, V46 <dbl>, ...
…
``` r
model_lasso_bootstrapped <- bootstrapped_datasets %>%
  map_df(.x = .$splits, .f = ~ as.data.frame(.) %>% model_lasso(.), .id = "bootstrap")
```

The output from this shows the variables selected by lasso for each
bootstrap repeat

``` r
model_lasso_bootstrapped %>%
  as_tibble()
```

    ## # A tibble: 999 x 3
    ##    bootstrap variable   estimate
    ##    <chr>     <chr>         <dbl>
    ##  1 1         V6         0.000279
    ##  2 1         causal_9   0.260   
    ##  3 1         causal_18  0.285   
    ##  4 1         V32       -0.0394  
    ##  5 1         V35        0.0554  
    ##  6 1         V42       -0.00410 
    ##  7 1         causal_45  0.541   
    ##  8 1         V46        0.0209  
    ##  9 1         V56        0.0370  
    ## 10 1         V57        0.0579  
    ## # ... with 989 more rows

We can calculate stability for each variable by the number of times it
was selected across bootstraps.

``` r
model_lasso_bootstrapped %>%
  group_by(variable) %>%
  summarise(stability = (n()/bootstrap_n) * 100) %>%
  arrange(desc(stability))
```

    ## # A tibble: 272 x 2
    ##    variable   stability
    ##    <chr>          <dbl>
    ##  1 causal_116       100
    ##  2 causal_121       100
    ##  3 causal_18        100
    ##  4 causal_221       100
    ##  5 causal_45        100
    ##  6 causal_76        100
    ##  7 causal_84        100
    ##  8 causal_9         100
    ##  9 V206              90
    ## 10 V231              90
    ## # ... with 262 more rows
…
``` r
stab_output <- stabilise(outcome = "outcome", data = df_signal, models = c("mbic"), type = "linear")
```

Access the stability (percentage of bootstrap resamples where a given
variable was selected by a given model) results for elastic net as
follows:

``` r
stab_output$mbic$stability
```

    ## # A tibble: 301 x 7
    ##    variable   mean_coefficient ci_lower ci_upper bootstrap_p stability stable
    ##    <chr>                 <dbl>    <dbl>    <dbl>       <dbl>     <dbl> <chr> 
    ##  1 causal_116            0.493    0.382    0.602           0       100 *     
    ##  2 causal_121            0.434    0.330    0.551           0       100 *     
    ##  3 causal_18             0.416    0.332    0.520           0       100 *     
    ##  4 causal_45             0.589    0.464    0.716           0       100 *     
    ##  5 causal_84             0.471    0.370    0.572           0       100 *     
    ##  6 causal_9              0.405    0.316    0.526           0        96 *     
    ##  7 causal_76             0.376    0.281    0.481           0        88 *     
    ##  8 causal_221            0.373    0.250    0.484           0        81 *     
    ##  9 V231                  0.253    0.220    0.296           0         7 <NA>  
    ## 10 V69                   0.244    0.195    0.336           0         7 <NA>  
    ## # ... with 291 more rows
…
The *stabiliser* package allows the stability selection results from
multiple models to be used synergistically, and by leveraging the
strenghts of various models, a more robust method of variable selection
is often achieved.

``` r
triangulated_stability <- triangulate(stab_output)

triangulated_stability
```

    ## $combi
    ## $combi$stability
    ## # A tibble: 301 x 4
    ##    variable   stability bootstrap_p stable
    ##    <chr>          <dbl>       <dbl> <chr> 
    ##  1 causal_116     100             0 *     
    ##  2 causal_121     100             0 *     
    ##  3 causal_45      100             0 *     
    ##  4 causal_84      100             0 *     
    ##  5 causal_18       99.5           0 *     
    ##  6 causal_9        97             0 *     
    ##  7 causal_76       95.5           0 *     
    ##  8 causal_221      91             0 *     
    ##  9 V129            46             0 <NA>  
    ## 10 V80             46             0 <NA>  
    ## # ... with 291 more rows
    ## 
    ## $combi$perm_thresh
    ## [1] 60
…
